…
      $k1
      [1] 0.6523193
      
      $a
      [1] 7.102168
      
      $segments
        chrom     start       end  n
      1    23   0.00000  11.37895 19
      2    23  64.51303 120.09443 76
      3    23 141.08237 175.85883 48
      
      $posteriors
      # A tibble: 246 x 10
         chrom marker       cm freq1 g1    g2      ibs emission0 emission1  post
         <dbl> <chr>     <dbl> <dbl> <chr> <chr> <int>     <dbl>     <dbl> <dbl>
       1    23 rs4892897 0     0.627 1     1         1     0.394     0.627 0.998
       2    23 rs1637781 0     0.678 1     1         1     0.460     0.678 0.998
       3    23 rs5983084 0     0.532 2     2         1     0.219     0.468 0.998
       4    23 rs6642174 0     0.642 1     1         1     0.412     0.642 0.998
       5    23 rs6641753 0     0.553 2     2         1     0.199     0.447 0.998
       6    23 rs6641574 0     0.667 1     1         1     0.445     0.667 0.998
       7    23 rs2058865 0.179 0.724 1     1         1     0.525     0.724 0.998
       8    23 rs5962087 0.725 0.613 1     1         1     0.376     0.613 0.997
       9    23 rs5915796 1.46  0.536 1     1         1     0.287     0.536 0.995
      10    23 rs5916138 2.94  0.658 1     1         1     0.433     0.658 0.992
      # i 236 more rows
…
      $segments
         chrom       start       end   n
      1      3  54.8804799 114.69801  68
      2      4   0.4048596  41.34093  48
      3      4  65.5858206  96.21532  39
      4      8 131.9818057 161.53634  39
      5      9  27.8427182  60.21339  38
      6     12  94.6185515 165.48962  83
      7     13   1.3208006  35.75327  44
      8     15 100.2667722 117.31752  24
      9     16  17.8107159 126.37303 129
      10    21   1.7453597  58.62373  68
      
      $posteriors
      # A tibble: 3,915 x 10
         chrom marker        cm freq1 g1    g2      ibs emission0 emission1    post
         <dbl> <chr>      <dbl> <dbl> <chr> <chr> <int>     <dbl>     <dbl>   <dbl>
       1     1 rs9442372  0     0.611 1/2   1/2       2    0.226     0.238  0.0756 
       2     1 rs4648727  0.328 0.637 2/2   1/2       1    0.0609    0.0839 0.0790 
       3     1 rs10910082 1.24  0.626 1/1   1/2       1    0.183     0.147  0.0805 
       4     1 rs6695131  2.00  0.572 1/2   1/1       1    0.160     0.140  0.0840 
       5     1 rs3765703  4.81  0.594 1/1   1/1       2    0.125     0.210  0.0941 
       6     1 rs7367066  5.86  0.674 1/1   1/1       2    0.206     0.306  0.0801 
       7     1 rs6675979  6.77  0.562 1/2   1/2       2    0.242     0.246  0.0547 
       8     1 rs11808641 7.34  0.701 1/2   1/2       2    0.176     0.210  0.0370 
       9     1 rs875807   8.23  0.663 1/1   2/2       0    0.0499    0      0      
      10     1 rs2181699  8.69  0.590 1/2   1/1       1    0.168     0.143  0.00142
      # i 3,905 more rows
